componentes_CPU/BCD_dois_digitos/simulation/qsim/BCD_dois_digitos.msim.vcd
$comment
	File created using the following command:
		vcd file BCD_dois_digitos.msim.vcd -direction
$end
$date
	Sun May 08 19:40:39 2016
$end
$version
	ModelSim Version 10.1d
$end
$timescale
	1ps
$end
$scope module BCD_dois_digitos_vlg_vec_tst $end
$var reg 32 ! numero [31:0] $end
$var wire 1 " dezena [3] $end
$var wire 1 # dezena [2] $end
$var wire 1 $ dezena [1] $end
$var wire 1 % dezena [0] $end
$var wire 1 & sinal $end
$var wire 1 ' unidade [3] $end
$var wire 1 ( unidade [2] $end
$var wire 1 ) unidade [1] $end
$var wire 1 * unidade [0] $end
$var wire 1 + sampler $end
$scope module i1 $end
$var wire 1 , gnd $end
$var wire 1 - vcc $end
$var wire 1 . unknown $end
$var tri1 1 / devclrn $end
$var tri1 1 0 devpor $end
$var tri1 1 1 devoe $end
$var wire 1 2 numero[8]~input_o $end
$var wire 1 3 numero[9]~input_o $end
$var wire 1 4 numero[10]~input_o $end
$var wire 1 5 numero[11]~input_o $end
$var wire 1 6 numero[12]~input_o $end
$var wire 1 7 numero[13]~input_o $end
$var wire 1 8 numero[14]~input_o $end
$var wire 1 9 numero[15]~input_o $end
$var wire 1 : numero[16]~input_o $end
$var wire 1 ; numero[17]~input_o $end
$var wire 1 < numero[18]~input_o $end
$var wire 1 = numero[19]~input_o $end
$var wire 1 > numero[20]~input_o $end
$var wire 1 ? numero[21]~input_o $end
$var wire 1 @ numero[22]~input_o $end
$var wire 1 A numero[23]~input_o $end
$var wire 1 B numero[24]~input_o $end
$var wire 1 C numero[25]~input_o $end
$var wire 1 D numero[26]~input_o $end
$var wire 1 E numero[27]~input_o $end
$var wire 1 F numero[28]~input_o $end
$var wire 1 G numero[29]~input_o $end
$var wire 1 H numero[30]~input_o $end
$var wire 1 I numero[31]~input_o $end
$var wire 1 J sinal~output_o $end
$var wire 1 K dezena[0]~output_o $end
$var wire 1 L dezena[1]~output_o $end
$var wire 1 M dezena[2]~output_o $end
$var wire 1 N dezena[3]~output_o $end
$var wire 1 O unidade[0]~output_o $end
$var wire 1 P unidade[1]~output_o $end
$var wire 1 Q unidade[2]~output_o $end
$var wire 1 R unidade[3]~output_o $end
$var wire 1 S numero[7]~input_o $end
$var wire 1 T numero[3]~input_o $end
$var wire 1 U numero[2]~input_o $end
$var wire 1 V numero[1]~input_o $end
$var wire 1 W numero[0]~input_o $end
$var wire 1 X Add7~1_cout $end
$var wire 1 Y Add7~3 $end
$var wire 1 Z Add7~5 $end
$var wire 1 [ Add7~6_combout $end
$var wire 1 \ numero[4]~input_o $end
$var wire 1 ] Add7~7 $end
$var wire 1 ^ Add7~8_combout $end
$var wire 1 _ numero[6]~input_o $end
$var wire 1 ` numero[5]~input_o $end
$var wire 1 a Add7~9 $end
$var wire 1 b Add7~11 $end
$var wire 1 c Add7~13 $end
$var wire 1 d Add7~14_combout $end
$var wire 1 e Add7~10_combout $end
$var wire 1 f Add7~12_combout $end
$var wire 1 g unidade~0_combout $end
$var wire 1 h unidade~1_combout $end
$var wire 1 i unidade~2_combout $end
$var wire 1 j unidade~5_combout $end
$var wire 1 k unidade~3_combout $end
$var wire 1 l unidade~4_combout $end
$var wire 1 m Add7~4_combout $end
$var wire 1 n unidade~9_combout $end
$var wire 1 o unidade~6_combout $end
$var wire 1 p Add7~2_combout $end
$var wire 1 q unidade~7_combout $end
$var wire 1 r unidade~8_combout $end
$var wire 1 s unidade~12_combout $end
$var wire 1 t unidade~11_combout $end
$var wire 1 u unidade~10_combout $end
$var wire 1 v unidade~15_combout $end
$var wire 1 w unidade~14_combout $end
$var wire 1 x unidade~13_combout $end
$var wire 1 y unidade~17_combout $end
$var wire 1 z unidade~18_combout $end
$var wire 1 { unidade~16_combout $end
$var wire 1 | unidade~19_combout $end
$var wire 1 } unidade~20_combout $end
$var wire 1 ~ Add6~0_combout $end
$var wire 1 !! Add14~0_combout $end
$var wire 1 "! dezena~0_combout $end
$var wire 1 #! unidade~21_combout $end
$var wire 1 $! unidade~24_combout $end
$var wire 1 %! dezena~1_combout $end
$var wire 1 &! unidade~22_combout $end
$var wire 1 '! LessThan5~0_combout $end
$var wire 1 (! LessThan10~0_combout $end
$var wire 1 )! LessThan7~0_combout $end
$var wire 1 *! unidade~23_combout $end
$var wire 1 +! dezena~2_combout $end
$var wire 1 ,! dezena~3_combout $end
$var wire 1 -! dezena~4_combout $end
$var wire 1 .! dezena~6_combout $end
$var wire 1 /! dezena~7_combout $end
$var wire 1 0! LessThan3~0_combout $end
$var wire 1 1! LessThan0~0_combout $end
$var wire 1 2! dezena~5_combout $end
$var wire 1 3! dezena~8_combout $end
$var wire 1 4! dezena~9_combout $end
$var wire 1 5! dezena~10_combout $end
$var wire 1 6! dezena~11_combout $end
$var wire 1 7! Add13~0_combout $end
$var wire 1 8! dezena~12_combout $end
$var wire 1 9! unidade~25_combout $end
$var wire 1 :! unidade~26_combout $end
$var wire 1 ;! unidade~27_combout $end
$var wire 1 <! unidade~28_combout $end
$var wire 1 =! unidade~29_combout $end
$var wire 1 >! unidade~30_combout $end
$upscope $end
$upscope $end
$enddefinitions $end
#0
$dumpvars
b0 !
0%
0$
0#
0"
0&
0*
0)
0(
0'
x+
0,
1-
x.
1/
10
11
02
03
04
05
06
07
08
09
0:
0;
0<
0=
0>
0?
0@
0A
0B
0C
0D
0E
0F
0G
0H
0I
0J
0K
0L
0M
0N
0O
0P
0Q
0R
0S
0T
0U
0V
0W
1X
0Y
1Z
0[
0\
0]
0^
0_
0`
1a
0b
1c
0d
0e
0f
0g
1h
0i
1j
0k
0l
0m
0n
0o
0p
1q
0r
0s
1t
0u
0v
1w
0x
0y
1z
0{
0|
0}
0~
0!!
0"!
1#!
1$!
0%!
1&!
0'!
0(!
0)!
1*!
0+!
0,!
0-!
1.!
0/!
00!
01!
12!
03!
04!
05!
06!
07!
08!
09!
0:!
0;!
1<!
0=!
0>!
$end
#100000
b10000 !
b10010 !
b10011 !
1V
1\
0+
1W
0<!
1Y
1p
0t
0a
1^
0X
1O
1*
19!
0Z
1m
1v
1b
1e
0h
0p
1P
1)
1]
1[
0q
1{
0c
1f
1i
1l
0^
0*!
1~
1|
1d
1(!
1h
0$!
1q
0(!
0i
1g
14!
0.!
1+!
1}
1)!
0l
17!
04!
1.!
0+!
1k
07!
1=!
1:!
1$!
0q
09!
1"!
0$!
1q
1n
0P
1K
0)
1%
1>!
17!
1!!
1R
1'
#200000
b11011 !
b11001 !
0V
1T
1+
1<!
1p
0w
0[
1;!
19!
0=!
0#!
0{
0z
1l
0k
0j
1Q
1P
1(
1)
1'!
0~
0|
0<!
1o
0n
0>!
1-!
0;!
0}
1=!
0R
1L
0Q
0'
1$
0(
0"!
0=!
0:!
0K
0%
09!
1>!
0P
1R
0)
1'
0>!
1;!
0R
1Q
0'
1(
#300000
b111001 !
b101001 !
b100001 !
0T
0\
1`
0+
1w
1[
1t
1s
1^
0e
1#!
1{
1z
0l
1k
1j
1x
0v
1i
0h
0g
0'!
1~
1|
1<!
0o
1n
0#!
0{
0z
1y
1l
0k
0-!
0;!
1}
1'!
0<!
0n
0L
0Q
0$
0(
1>!
1-!
1;!
1=!
1:!
0!!
1R
1L
1Q
1'
1$
1(
19!
1"!
1P
1K
1)
1%
0>!
0;!
0R
0Q
0'
0(
#400000
b101001 !
1T
1+
0&!
0x
0[
02!
1#!
1z
0y
0l
0j
1<!
0~
0|
1$!
0q
1o
13!
0-!
1;!
1>!
0=!
0}
07!
1!!
1M
0L
1Q
1R
1#
0$
1(
1'
0"!
0:!
0K
0%
0>!
09!
0R
0P
0'
0)
0;!
0Q
0(
#500000
b10000000000000000000000000101001 !
b11000000000000000000000000101001 !
b11100000000000000000000000101001 !
b11110000000000000000000000101001 !
b11111000000000000000000000101001 !
b11111100000000000000000000101001 !
b11111110000000000000000000101001 !
b11111111000000000000000000101001 !
b11111111100000000000000000101001 !
b11111111110000000000000000101001 !
b11111111111000000000000000101001 !
b11111111111100000000000000101001 !
b11111111111110000000000000101001 !
b11111111111111000000000000101001 !
b11111111111111100000000000101001 !
b11111111111111110000000000101001 !
b11111111111111111000000000101001 !
b11111111111111111100000000101001 !
b11111111111111111110000000101001 !
b11111111111111111111000000101001 !
b11111111111111111111100000101001 !
b11111111111111111111110000101001 !
b11111111111111111111111000101001 !
b11111111111111111111111100101001 !
b11111111111111111111111110101001 !
b11111111111111111111111111101001 !
b11111111111111111111111111101101 !
b11111111111111111111111111101111 !
b11111111111111111111111111001111 !
b11111111111111111111111111000111 !
1V
1U
0T
0`
1_
12
13
14
15
16
17
18
19
1:
1;
1<
1=
1>
1?
1@
1A
1B
1C
1D
1E
1F
1G
1H
1I
0+
1S
0p
0z
0m
1&!
1x
1[
11!
1e
0f
1/!
1r
0d
1J
1&
1;!
19!
1>!
0<!
1q
12!
0'!
0#!
1{
1z
1l
1j
0)!
1}
1Q
1P
1R
1(
1)
1'
09!
03!
0!!
0r
1'!
1~
1|
0o
1n
0.!
0P
0M
0)
0#
19!
1"!
1!!
17!
0/!
1P
1K
1)
1%
0"!
0>!
0K
0R
0%
0'
1"!
13!
1K
1M
1%
1#
#600000
b11111111111111111111111111000110 !
b1111111111111111111111111000110 !
b111111111111111111111111000110 !
b11111111111111111111111000110 !
b1111111111111111111111000110 !
b111111111111111111111000110 !
b11111111111111111111000110 !
b1111111111111111111000110 !
b111111111111111111000110 !
b11111111111111111000110 !
b1111111111111111000110 !
b111111111111111000110 !
b11111111111111000110 !
b1111111111111000110 !
b111111111111000110 !
b11111111111000110 !
b1111111111000110 !
b111111111000110 !
b11111111000110 !
b1111111000110 !
b111111000110 !
b11111000110 !
b1111000110 !
b111000110 !
b11000110 !
b1000110 !
b110 !
0_
02
03
04
05
06
07
08
09
0:
0;
0<
0=
0>
0?
0@
0A
0B
0C
0D
0E
0F
0G
0H
0I
1+
0W
0S
01!
0s
1f
1X
1=!
1:!
1d
0O
0J
0*
0&
0;!
09!
03!
1-!
0x
1)!
1(!
0i
1h
1p
0Q
0P
0M
1L
0(
0)
0#
1$
1>!
1#!
0{
0z
14!
1.!
1*!
0l
0j
1R
1'
0'!
0~
0|
04!
0.!
1o
0n
0-!
1;!
0}
0L
1Q
0$
1(
0"!
0=!
0:!
0K
0%
19!
1P
1)
0>!
0R
0'
#700000
b10110 !
b10010 !
b110010 !
b110011 !
b10000000000000000000000000110011 !
b11000000000000000000000000110011 !
b11100000000000000000000000110011 !
b11110000000000000000000000110011 !
b11111000000000000000000000110011 !
b11111100000000000000000000110011 !
b11111110000000000000000000110011 !
b11111111000000000000000000110011 !
b11111111100000000000000000110011 !
b11111111110000000000000000110011 !
b11111111111000000000000000110011 !
b11111111111100000000000000110011 !
b11111111111110000000000000110011 !
b11111111111111000000000000110011 !
b11111111111111100000000000110011 !
b11111111111111110000000000110011 !
b11111111111111111000000000110011 !
b11111111111111111100000000110011 !
b11111111111111111110000000110011 !
b11111111111111111111000000110011 !
b11111111111111111111100000110011 !
b11111111111111111111110000110011 !
b11111111111111111111111000110011 !
b11111111111111111111111100110011 !
b11111111111111111111111110110011 !
0U
1\
1`
12
13
14
15
16
17
18
19
1:
1;
1<
1=
1>
1?
1@
1A
1B
1C
1D
1E
1F
1G
1H
1I
0+
1W
1S
1z
1m
0t
0^
11!
0e
0X
1<!
1:!
1r
0d
1O
1J
1*
1&
1>!
13!
0q
1v
0(!
1g
0)!
0p
1}
1R
1M
1'
1#
0;!
1=!
1{
1.!
0*!
1k
1j
0<!
0Q
0(
1"!
1~
1|
07!
1/!
0.!
0$!
1q
0o
1n
1K
1%
0>!
17!
0/!
0=!
0:!
0r
0R
0'
03!
1-!
1>!
0M
1L
1R
0#
1$
1'
13!
0>!
1;!
1M
0R
1Q
1#
0'
1(
#800000
b11111111111111111111111110110001 !
b11111111111111111111111110111001 !
b11111111111111111111111110101001 !
b11111111111111111111111110001001 !
b11111111111111111111111110001000 !
b1111111111111111111111110001000 !
b111111111111111111111110001000 !
b11111111111111111111110001000 !
b1111111111111111111110001000 !
b111111111111111111110001000 !
b11111111111111111110001000 !
b1111111111111111110001000 !
b111111111111111110001000 !
b11111111111111110001000 !
b1111111111111110001000 !
b111111111111110001000 !
b11111111111110001000 !
b1111111111110001000 !
b111111111110001000 !
b11111111110001000 !
b1111111110001000 !
b111111110001000 !
b11111110001000 !
b1111110001000 !
b111110001000 !
b11110001000 !
b1110001000 !
b110001000 !
b10001000 !
b1000 !
0V
1T
0\
0`
02
03
04
05
06
07
08
09
0:
0;
0<
0=
0>
0?
0@
0A
0B
0C
0D
0E
0F
0G
0H
0I
1+
0W
0S
1<!
1p
0w
0[
1t
1^
01!
1e
1X
1=!
1:!
1d
0O
0J
0*
0&
0;!
03!
0-!
0=!
0#!
0{
0z
1l
0k
0j
0v
1(!
0g
1)!
0Y
0p
0Q
0M
0L
0(
0#
0$
1>!
1;!
1'!
0~
0|
0<!
1o
0n
1#!
1z
1y
14!
1.!
1+!
1*!
0l
1j
1Z
0m
1R
1Q
1'
1(
0>!
1-!
0;!
0}
1=!
0!!
0'!
1<!
07!
04!
0.!
0+!
1$!
0o
1[
0R
1L
0Q
0'
1$
0(
0"!
1>!
0-!
1;!
0=!
0:!
17!
0j
0K
1R
0L
1Q
0%
1'
0$
1(
09!
0>!
1o
0P
0R
0)
0'
1>!
0;!
1R
0Q
1'
0(
#900000
b1100 !
b1110 !
b110 !
b100110 !
b10000000000000000000000000100110 !
b11000000000000000000000000100110 !
b11100000000000000000000000100110 !
b11110000000000000000000000100110 !
b11111000000000000000000000100110 !
b11111100000000000000000000100110 !
b11111110000000000000000000100110 !
b11111111000000000000000000100110 !
b11111111100000000000000000100110 !
b11111111110000000000000000100110 !
b11111111111000000000000000100110 !
b11111111111100000000000000100110 !
b11111111111110000000000000100110 !
b11111111111111000000000000100110 !
b11111111111111100000000000100110 !
b11111111111111110000000000100110 !
b11111111111111111000000000100110 !
b11111111111111111100000000100110 !
b11111111111111111110000000100110 !
b11111111111111111111000000100110 !
b11111111111111111111100000100110 !
b11111111111111111111110000100110 !
b11111111111111111111111000100110 !
b11111111111111111111111100100110 !
b11111111111111111111111110100110 !
1V
1U
0T
1`
12
13
14
15
16
17
18
19
1:
1;
1<
1=
1>
1?
1@
1A
1B
1C
1D
1E
1F
1G
1H
1I
0+
1S
0<!
1~
1|
1Y
1p
0z
0Z
1m
1w
0]
0[
11!
0e
1:!
0d
1J
1&
1;!
13!
0m
1<!
1!!
1r
1]
1[
0q
0y
1a
0^
1j
0)!
1Q
1M
1(
1#
19!
0;!
1q
0o
1}
0a
1^
0j
0:!
0~
0|
1e
0(!
1g
14!
1.!
1P
0Q
1)
0(
1=!
1:!
0!!
0r
0e
1(!
1i
0g
1o
04!
0*!
1k
1j
16!
1/!
0>!
09!
1"!
1;!
0}
0i
14!
0.!
1+!
0k
1!!
1r
07!
06!
0$!
0q
0R
0P
1K
1Q
0'
0)
1%
1(
0;!
0"!
18!
03!
0=!
0:!
1*!
0j
16!
0/!
1,!
1$!
1q
0o
1}
0Q
0K
1N
0M
0(
0%
1"
0#
19!
08!
1-!
1.!
0+!
1o
1/!
1=!
1:!
0!!
0r
1P
0N
1L
1)
0"
1$
1;!
13!
09!
1"!
17!
0/!
0,!
1!!
1r
0}
1Q
1M
0P
1K
1(
1#
0)
1%
03!
0;!
0"!
1/!
1}
0=!
0M
0Q
0K
0#
0(
0%
18!
13!
0-!
19!
1=!
1N
1M
0L
1P
1"
1#
0$
1)
03!
09!
1"!
1>!
0M
0P
1K
1R
0#
0)
1%
1'
0>!
0R
0'
