componentes_CPU/entrada_de_dados/simulation/qsim/entrada_de_dados.msim.vcd
$comment
	File created using the following command:
		vcd file entrada_de_dados.msim.vcd -direction
$end
$date
	Sun May 08 19:24:36 2016
$end
$version
	ModelSim Version 10.1d
$end
$timescale
	1ps
$end
$scope module entrada_de_dados_vlg_vec_tst $end
$var reg 1 ! IN $end
$var reg 8 " chaves [7:0] $end
$var wire 1 # dado [31] $end
$var wire 1 $ dado [30] $end
$var wire 1 % dado [29] $end
$var wire 1 & dado [28] $end
$var wire 1 ' dado [27] $end
$var wire 1 ( dado [26] $end
$var wire 1 ) dado [25] $end
$var wire 1 * dado [24] $end
$var wire 1 + dado [23] $end
$var wire 1 , dado [22] $end
$var wire 1 - dado [21] $end
$var wire 1 . dado [20] $end
$var wire 1 / dado [19] $end
$var wire 1 0 dado [18] $end
$var wire 1 1 dado [17] $end
$var wire 1 2 dado [16] $end
$var wire 1 3 dado [15] $end
$var wire 1 4 dado [14] $end
$var wire 1 5 dado [13] $end
$var wire 1 6 dado [12] $end
$var wire 1 7 dado [11] $end
$var wire 1 8 dado [10] $end
$var wire 1 9 dado [9] $end
$var wire 1 : dado [8] $end
$var wire 1 ; dado [7] $end
$var wire 1 < dado [6] $end
$var wire 1 = dado [5] $end
$var wire 1 > dado [4] $end
$var wire 1 ? dado [3] $end
$var wire 1 @ dado [2] $end
$var wire 1 A dado [1] $end
$var wire 1 B dado [0] $end
$var wire 1 C flag_IN $end
$var wire 1 D sampler $end
$scope module i1 $end
$var wire 1 E gnd $end
$var wire 1 F vcc $end
$var wire 1 G unknown $end
$var tri1 1 H devclrn $end
$var tri1 1 I devpor $end
$var tri1 1 J devoe $end
$var wire 1 K dado[0]~output_o $end
$var wire 1 L dado[1]~output_o $end
$var wire 1 M dado[2]~output_o $end
$var wire 1 N dado[3]~output_o $end
$var wire 1 O dado[4]~output_o $end
$var wire 1 P dado[5]~output_o $end
$var wire 1 Q dado[6]~output_o $end
$var wire 1 R dado[7]~output_o $end
$var wire 1 S dado[8]~output_o $end
$var wire 1 T dado[9]~output_o $end
$var wire 1 U dado[10]~output_o $end
$var wire 1 V dado[11]~output_o $end
$var wire 1 W dado[12]~output_o $end
$var wire 1 X dado[13]~output_o $end
$var wire 1 Y dado[14]~output_o $end
$var wire 1 Z dado[15]~output_o $end
$var wire 1 [ dado[16]~output_o $end
$var wire 1 \ dado[17]~output_o $end
$var wire 1 ] dado[18]~output_o $end
$var wire 1 ^ dado[19]~output_o $end
$var wire 1 _ dado[20]~output_o $end
$var wire 1 ` dado[21]~output_o $end
$var wire 1 a dado[22]~output_o $end
$var wire 1 b dado[23]~output_o $end
$var wire 1 c dado[24]~output_o $end
$var wire 1 d dado[25]~output_o $end
$var wire 1 e dado[26]~output_o $end
$var wire 1 f dado[27]~output_o $end
$var wire 1 g dado[28]~output_o $end
$var wire 1 h dado[29]~output_o $end
$var wire 1 i dado[30]~output_o $end
$var wire 1 j dado[31]~output_o $end
$var wire 1 k flag_IN~output_o $end
$var wire 1 l IN~input_o $end
$var wire 1 m estado~0_combout $end
$var wire 1 n estado~q $end
$var wire 1 o chaves[0]~input_o $end
$var wire 1 p dado~0_combout $end
$var wire 1 q chaves[1]~input_o $end
$var wire 1 r dado~1_combout $end
$var wire 1 s chaves[2]~input_o $end
$var wire 1 t dado~2_combout $end
$var wire 1 u chaves[3]~input_o $end
$var wire 1 v dado~3_combout $end
$var wire 1 w chaves[4]~input_o $end
$var wire 1 x dado~4_combout $end
$var wire 1 y chaves[5]~input_o $end
$var wire 1 z dado~5_combout $end
$var wire 1 { chaves[6]~input_o $end
$var wire 1 | dado~6_combout $end
$var wire 1 } chaves[7]~input_o $end
$var wire 1 ~ dado~7_combout $end
$upscope $end
$upscope $end
$enddefinitions $end
#0
$dumpvars
0!
b1011 "
1B
1A
0@
1?
0>
0=
0<
0;
0:
09
08
07
06
05
04
03
02
01
00
0/
0.
0-
0,
0+
0*
0)
0(
0'
0&
0%
0$
0#
1C
xD
0E
1F
xG
1H
1I
1J
1K
1L
0M
1N
0O
0P
0Q
0R
0S
0T
0U
0V
0W
0X
0Y
0Z
0[
0\
0]
0^
0_
0`
0a
0b
0c
0d
0e
0f
0g
0h
0i
0j
1k
0l
1m
0n
1o
1p
1q
1r
0s
0t
1u
1v
0w
0x
0y
0z
0{
0|
0}
0~
$end
#50000
1!
1l
0D
1n
0m
0k
0C
0v
0r
0p
0N
0L
0K
0?
0A
0B
#100000
0!
0l
1D
#150000
1!
1l
0D
0n
1m
1k
1C
1v
1r
1p
1N
1L
1K
1?
1A
1B
#200000
0!
0l
1D
#250000
1!
1l
0D
1n
0m
0k
0C
0v
0r
0p
0N
0L
0K
0?
0A
0B
#300000
0!
0l
1D
#350000
1!
1l
0D
0n
1m
1k
1C
1v
1r
1p
1N
1L
1K
1?
1A
1B
#400000
0!
0l
1D
#450000
1!
1l
0D
1n
0m
0k
0C
0v
0r
0p
0N
0L
0K
0?
0A
0B
#500000
0!
0l
1D
#550000
1!
1l
0D
0n
1m
1k
1C
1v
1r
1p
1N
1L
1K
1?
1A
1B
#600000
0!
0l
1D
#650000
1!
1l
0D
1n
0m
0k
0C
0v
0r
0p
0N
0L
0K
0?
0A
0B
#700000
0!
0l
1D
#750000
1!
1l
0D
0n
1m
1k
1C
1v
1r
1p
1N
1L
1K
1?
1A
1B
#800000
0!
0l
1D
#850000
1!
1l
0D
1n
0m
0k
0C
0v
0r
0p
0N
0L
0K
0?
0A
0B
#900000
0!
0l
1D
#950000
1!
1l
0D
0n
1m
1k
1C
1v
1r
1p
1N
1L
1K
1?
1A
1B
