componentes_CPU/saida_de_dados/simulation/qsim/saida_de_dados.msim.vcd
$comment
	File created using the following command:
		vcd file saida_de_dados.msim.vcd -direction
$end
$date
	Sun May 08 19:31:40 2016
$end
$version
	ModelSim Version 10.1d
$end
$timescale
	1ps
$end
$scope module saida_de_dados_vlg_vec_tst $end
$var reg 1 ! OUT $end
$var reg 1 " clock $end
$var reg 32 # dado_de_saida [31:0] $end
$var reg 26 $ endereco [25:0] $end
$var reg 1 % reset $end
$var wire 1 & D1 [31] $end
$var wire 1 ' D1 [30] $end
$var wire 1 ( D1 [29] $end
$var wire 1 ) D1 [28] $end
$var wire 1 * D1 [27] $end
$var wire 1 + D1 [26] $end
$var wire 1 , D1 [25] $end
$var wire 1 - D1 [24] $end
$var wire 1 . D1 [23] $end
$var wire 1 / D1 [22] $end
$var wire 1 0 D1 [21] $end
$var wire 1 1 D1 [20] $end
$var wire 1 2 D1 [19] $end
$var wire 1 3 D1 [18] $end
$var wire 1 4 D1 [17] $end
$var wire 1 5 D1 [16] $end
$var wire 1 6 D1 [15] $end
$var wire 1 7 D1 [14] $end
$var wire 1 8 D1 [13] $end
$var wire 1 9 D1 [12] $end
$var wire 1 : D1 [11] $end
$var wire 1 ; D1 [10] $end
$var wire 1 < D1 [9] $end
$var wire 1 = D1 [8] $end
$var wire 1 > D1 [7] $end
$var wire 1 ? D1 [6] $end
$var wire 1 @ D1 [5] $end
$var wire 1 A D1 [4] $end
$var wire 1 B D1 [3] $end
$var wire 1 C D1 [2] $end
$var wire 1 D D1 [1] $end
$var wire 1 E D1 [0] $end
$var wire 1 F D2 [31] $end
$var wire 1 G D2 [30] $end
$var wire 1 H D2 [29] $end
$var wire 1 I D2 [28] $end
$var wire 1 J D2 [27] $end
$var wire 1 K D2 [26] $end
$var wire 1 L D2 [25] $end
$var wire 1 M D2 [24] $end
$var wire 1 N D2 [23] $end
$var wire 1 O D2 [22] $end
$var wire 1 P D2 [21] $end
$var wire 1 Q D2 [20] $end
$var wire 1 R D2 [19] $end
$var wire 1 S D2 [18] $end
$var wire 1 T D2 [17] $end
$var wire 1 U D2 [16] $end
$var wire 1 V D2 [15] $end
$var wire 1 W D2 [14] $end
$var wire 1 X D2 [13] $end
$var wire 1 Y D2 [12] $end
$var wire 1 Z D2 [11] $end
$var wire 1 [ D2 [10] $end
$var wire 1 \ D2 [9] $end
$var wire 1 ] D2 [8] $end
$var wire 1 ^ D2 [7] $end
$var wire 1 _ D2 [6] $end
$var wire 1 ` D2 [5] $end
$var wire 1 a D2 [4] $end
$var wire 1 b D2 [3] $end
$var wire 1 c D2 [2] $end
$var wire 1 d D2 [1] $end
$var wire 1 e D2 [0] $end
$var wire 1 f D3 [31] $end
$var wire 1 g D3 [30] $end
$var wire 1 h D3 [29] $end
$var wire 1 i D3 [28] $end
$var wire 1 j D3 [27] $end
$var wire 1 k D3 [26] $end
$var wire 1 l D3 [25] $end
$var wire 1 m D3 [24] $end
$var wire 1 n D3 [23] $end
$var wire 1 o D3 [22] $end
$var wire 1 p D3 [21] $end
$var wire 1 q D3 [20] $end
$var wire 1 r D3 [19] $end
$var wire 1 s D3 [18] $end
$var wire 1 t D3 [17] $end
$var wire 1 u D3 [16] $end
$var wire 1 v D3 [15] $end
$var wire 1 w D3 [14] $end
$var wire 1 x D3 [13] $end
$var wire 1 y D3 [12] $end
$var wire 1 z D3 [11] $end
$var wire 1 { D3 [10] $end
$var wire 1 | D3 [9] $end
$var wire 1 } D3 [8] $end
$var wire 1 ~ D3 [7] $end
$var wire 1 !! D3 [6] $end
$var wire 1 "! D3 [5] $end
$var wire 1 #! D3 [4] $end
$var wire 1 $! D3 [3] $end
$var wire 1 %! D3 [2] $end
$var wire 1 &! D3 [1] $end
$var wire 1 '! D3 [0] $end
$var wire 1 (! sampler $end
$scope module i1 $end
$var wire 1 )! gnd $end
$var wire 1 *! vcc $end
$var wire 1 +! unknown $end
$var tri1 1 ,! devclrn $end
$var tri1 1 -! devpor $end
$var tri1 1 .! devoe $end
$var wire 1 /! D1[0]~output_o $end
$var wire 1 0! D1[1]~output_o $end
$var wire 1 1! D1[2]~output_o $end
$var wire 1 2! D1[3]~output_o $end
$var wire 1 3! D1[4]~output_o $end
$var wire 1 4! D1[5]~output_o $end
$var wire 1 5! D1[6]~output_o $end
$var wire 1 6! D1[7]~output_o $end
$var wire 1 7! D1[8]~output_o $end
$var wire 1 8! D1[9]~output_o $end
$var wire 1 9! D1[10]~output_o $end
$var wire 1 :! D1[11]~output_o $end
$var wire 1 ;! D1[12]~output_o $end
$var wire 1 <! D1[13]~output_o $end
$var wire 1 =! D1[14]~output_o $end
$var wire 1 >! D1[15]~output_o $end
$var wire 1 ?! D1[16]~output_o $end
$var wire 1 @! D1[17]~output_o $end
$var wire 1 A! D1[18]~output_o $end
$var wire 1 B! D1[19]~output_o $end
$var wire 1 C! D1[20]~output_o $end
$var wire 1 D! D1[21]~output_o $end
$var wire 1 E! D1[22]~output_o $end
$var wire 1 F! D1[23]~output_o $end
$var wire 1 G! D1[24]~output_o $end
$var wire 1 H! D1[25]~output_o $end
$var wire 1 I! D1[26]~output_o $end
$var wire 1 J! D1[27]~output_o $end
$var wire 1 K! D1[28]~output_o $end
$var wire 1 L! D1[29]~output_o $end
$var wire 1 M! D1[30]~output_o $end
$var wire 1 N! D1[31]~output_o $end
$var wire 1 O! D2[0]~output_o $end
$var wire 1 P! D2[1]~output_o $end
$var wire 1 Q! D2[2]~output_o $end
$var wire 1 R! D2[3]~output_o $end
$var wire 1 S! D2[4]~output_o $end
$var wire 1 T! D2[5]~output_o $end
$var wire 1 U! D2[6]~output_o $end
$var wire 1 V! D2[7]~output_o $end
$var wire 1 W! D2[8]~output_o $end
$var wire 1 X! D2[9]~output_o $end
$var wire 1 Y! D2[10]~output_o $end
$var wire 1 Z! D2[11]~output_o $end
$var wire 1 [! D2[12]~output_o $end
$var wire 1 \! D2[13]~output_o $end
$var wire 1 ]! D2[14]~output_o $end
$var wire 1 ^! D2[15]~output_o $end
$var wire 1 _! D2[16]~output_o $end
$var wire 1 `! D2[17]~output_o $end
$var wire 1 a! D2[18]~output_o $end
$var wire 1 b! D2[19]~output_o $end
$var wire 1 c! D2[20]~output_o $end
$var wire 1 d! D2[21]~output_o $end
$var wire 1 e! D2[22]~output_o $end
$var wire 1 f! D2[23]~output_o $end
$var wire 1 g! D2[24]~output_o $end
$var wire 1 h! D2[25]~output_o $end
$var wire 1 i! D2[26]~output_o $end
$var wire 1 j! D2[27]~output_o $end
$var wire 1 k! D2[28]~output_o $end
$var wire 1 l! D2[29]~output_o $end
$var wire 1 m! D2[30]~output_o $end
$var wire 1 n! D2[31]~output_o $end
$var wire 1 o! D3[0]~output_o $end
$var wire 1 p! D3[1]~output_o $end
$var wire 1 q! D3[2]~output_o $end
$var wire 1 r! D3[3]~output_o $end
$var wire 1 s! D3[4]~output_o $end
$var wire 1 t! D3[5]~output_o $end
$var wire 1 u! D3[6]~output_o $end
$var wire 1 v! D3[7]~output_o $end
$var wire 1 w! D3[8]~output_o $end
$var wire 1 x! D3[9]~output_o $end
$var wire 1 y! D3[10]~output_o $end
$var wire 1 z! D3[11]~output_o $end
$var wire 1 {! D3[12]~output_o $end
$var wire 1 |! D3[13]~output_o $end
$var wire 1 }! D3[14]~output_o $end
$var wire 1 ~! D3[15]~output_o $end
$var wire 1 !" D3[16]~output_o $end
$var wire 1 "" D3[17]~output_o $end
$var wire 1 #" D3[18]~output_o $end
$var wire 1 $" D3[19]~output_o $end
$var wire 1 %" D3[20]~output_o $end
$var wire 1 &" D3[21]~output_o $end
$var wire 1 '" D3[22]~output_o $end
$var wire 1 (" D3[23]~output_o $end
$var wire 1 )" D3[24]~output_o $end
$var wire 1 *" D3[25]~output_o $end
$var wire 1 +" D3[26]~output_o $end
$var wire 1 ," D3[27]~output_o $end
$var wire 1 -" D3[28]~output_o $end
$var wire 1 ." D3[29]~output_o $end
$var wire 1 /" D3[30]~output_o $end
$var wire 1 0" D3[31]~output_o $end
$var wire 1 1" clock~input_o $end
$var wire 1 2" clock~inputclkctrl_outclk $end
$var wire 1 3" dado_de_saida[0]~input_o $end
$var wire 1 4" reset~input_o $end
$var wire 1 5" saidas~0_combout $end
$var wire 1 6" saidas[0][0]~feeder_combout $end
$var wire 1 7" endereco[0]~input_o $end
$var wire 1 8" endereco[18]~input_o $end
$var wire 1 9" endereco[21]~input_o $end
$var wire 1 :" endereco[19]~input_o $end
$var wire 1 ;" endereco[20]~input_o $end
$var wire 1 <" saidas[1][0]~6_combout $end
$var wire 1 =" endereco[22]~input_o $end
$var wire 1 >" endereco[23]~input_o $end
$var wire 1 ?" endereco[24]~input_o $end
$var wire 1 @" endereco[25]~input_o $end
$var wire 1 A" saidas[1][0]~7_combout $end
$var wire 1 B" endereco[10]~input_o $end
$var wire 1 C" endereco[12]~input_o $end
$var wire 1 D" endereco[13]~input_o $end
$var wire 1 E" endereco[11]~input_o $end
$var wire 1 F" saidas[1][0]~3_combout $end
$var wire 1 G" endereco[7]~input_o $end
$var wire 1 H" endereco[9]~input_o $end
$var wire 1 I" endereco[6]~input_o $end
$var wire 1 J" endereco[8]~input_o $end
$var wire 1 K" saidas[1][0]~2_combout $end
$var wire 1 L" endereco[14]~input_o $end
$var wire 1 M" endereco[16]~input_o $end
$var wire 1 N" endereco[17]~input_o $end
$var wire 1 O" endereco[15]~input_o $end
$var wire 1 P" saidas[1][0]~4_combout $end
$var wire 1 Q" endereco[2]~input_o $end
$var wire 1 R" endereco[5]~input_o $end
$var wire 1 S" endereco[4]~input_o $end
$var wire 1 T" endereco[3]~input_o $end
$var wire 1 U" saidas[1][0]~1_combout $end
$var wire 1 V" saidas[1][0]~5_combout $end
$var wire 1 W" OUT~input_o $end
$var wire 1 X" saidas[1][0]~8_combout $end
$var wire 1 Y" endereco[1]~input_o $end
$var wire 1 Z" saidas[0][31]~9_combout $end
$var wire 1 [" saidas[0][0]~q $end
$var wire 1 \" dado_de_saida[1]~input_o $end
$var wire 1 ]" saidas~10_combout $end
$var wire 1 ^" saidas[0][1]~feeder_combout $end
$var wire 1 _" saidas[0][1]~q $end
$var wire 1 `" dado_de_saida[2]~input_o $end
$var wire 1 a" saidas~11_combout $end
$var wire 1 b" saidas[0][2]~feeder_combout $end
$var wire 1 c" saidas[0][2]~q $end
$var wire 1 d" dado_de_saida[3]~input_o $end
$var wire 1 e" saidas~12_combout $end
$var wire 1 f" saidas[0][3]~feeder_combout $end
$var wire 1 g" saidas[0][3]~q $end
$var wire 1 h" dado_de_saida[4]~input_o $end
$var wire 1 i" saidas~13_combout $end
$var wire 1 j" saidas[0][4]~q $end
$var wire 1 k" dado_de_saida[5]~input_o $end
$var wire 1 l" saidas~14_combout $end
$var wire 1 m" saidas[0][5]~feeder_combout $end
$var wire 1 n" saidas[0][5]~q $end
$var wire 1 o" dado_de_saida[6]~input_o $end
$var wire 1 p" saidas~15_combout $end
$var wire 1 q" saidas[0][6]~feeder_combout $end
$var wire 1 r" saidas[0][6]~q $end
$var wire 1 s" dado_de_saida[7]~input_o $end
$var wire 1 t" saidas~16_combout $end
$var wire 1 u" saidas[0][7]~q $end
$var wire 1 v" dado_de_saida[8]~input_o $end
$var wire 1 w" saidas~17_combout $end
$var wire 1 x" saidas[0][8]~feeder_combout $end
$var wire 1 y" saidas[0][8]~q $end
$var wire 1 z" dado_de_saida[9]~input_o $end
$var wire 1 {" saidas~18_combout $end
$var wire 1 |" saidas[0][9]~q $end
$var wire 1 }" dado_de_saida[10]~input_o $end
$var wire 1 ~" saidas~19_combout $end
$var wire 1 !# saidas[0][10]~q $end
$var wire 1 "# dado_de_saida[11]~input_o $end
$var wire 1 ## saidas~20_combout $end
$var wire 1 $# saidas[0][11]~feeder_combout $end
$var wire 1 %# saidas[0][11]~q $end
$var wire 1 &# dado_de_saida[12]~input_o $end
$var wire 1 '# saidas~21_combout $end
$var wire 1 (# saidas[0][12]~feeder_combout $end
$var wire 1 )# saidas[0][12]~q $end
$var wire 1 *# dado_de_saida[13]~input_o $end
$var wire 1 +# saidas~22_combout $end
$var wire 1 ,# saidas[0][13]~feeder_combout $end
$var wire 1 -# saidas[0][13]~q $end
$var wire 1 .# dado_de_saida[14]~input_o $end
$var wire 1 /# saidas~23_combout $end
$var wire 1 0# saidas[0][14]~feeder_combout $end
$var wire 1 1# saidas[0][14]~q $end
$var wire 1 2# dado_de_saida[15]~input_o $end
$var wire 1 3# saidas~24_combout $end
$var wire 1 4# saidas[0][15]~feeder_combout $end
$var wire 1 5# saidas[0][15]~q $end
$var wire 1 6# dado_de_saida[16]~input_o $end
$var wire 1 7# saidas~25_combout $end
$var wire 1 8# saidas[0][16]~feeder_combout $end
$var wire 1 9# saidas[0][16]~q $end
$var wire 1 :# dado_de_saida[17]~input_o $end
$var wire 1 ;# saidas~26_combout $end
$var wire 1 <# saidas[0][17]~feeder_combout $end
$var wire 1 =# saidas[0][17]~q $end
$var wire 1 ># dado_de_saida[18]~input_o $end
$var wire 1 ?# saidas~27_combout $end
$var wire 1 @# saidas[0][18]~feeder_combout $end
$var wire 1 A# saidas[0][18]~q $end
$var wire 1 B# dado_de_saida[19]~input_o $end
$var wire 1 C# saidas~28_combout $end
$var wire 1 D# saidas[0][19]~feeder_combout $end
$var wire 1 E# saidas[0][19]~q $end
$var wire 1 F# dado_de_saida[20]~input_o $end
$var wire 1 G# saidas~29_combout $end
$var wire 1 H# saidas[0][20]~q $end
$var wire 1 I# dado_de_saida[21]~input_o $end
$var wire 1 J# saidas~30_combout $end
$var wire 1 K# saidas[0][21]~feeder_combout $end
$var wire 1 L# saidas[0][21]~q $end
$var wire 1 M# dado_de_saida[22]~input_o $end
$var wire 1 N# saidas~31_combout $end
$var wire 1 O# saidas[0][22]~q $end
$var wire 1 P# dado_de_saida[23]~input_o $end
$var wire 1 Q# saidas~32_combout $end
$var wire 1 R# saidas[0][23]~feeder_combout $end
$var wire 1 S# saidas[0][23]~q $end
$var wire 1 T# dado_de_saida[24]~input_o $end
$var wire 1 U# saidas~33_combout $end
$var wire 1 V# saidas[0][24]~feeder_combout $end
$var wire 1 W# saidas[0][24]~q $end
$var wire 1 X# dado_de_saida[25]~input_o $end
$var wire 1 Y# saidas~34_combout $end
$var wire 1 Z# saidas[0][25]~feeder_combout $end
$var wire 1 [# saidas[0][25]~q $end
$var wire 1 \# dado_de_saida[26]~input_o $end
$var wire 1 ]# saidas~35_combout $end
$var wire 1 ^# saidas[0][26]~q $end
$var wire 1 _# dado_de_saida[27]~input_o $end
$var wire 1 `# saidas~36_combout $end
$var wire 1 a# saidas[0][27]~feeder_combout $end
$var wire 1 b# saidas[0][27]~q $end
$var wire 1 c# dado_de_saida[28]~input_o $end
$var wire 1 d# saidas~37_combout $end
$var wire 1 e# saidas[0][28]~feeder_combout $end
$var wire 1 f# saidas[0][28]~q $end
$var wire 1 g# dado_de_saida[29]~input_o $end
$var wire 1 h# saidas~38_combout $end
$var wire 1 i# saidas[0][29]~feeder_combout $end
$var wire 1 j# saidas[0][29]~q $end
$var wire 1 k# dado_de_saida[30]~input_o $end
$var wire 1 l# saidas~39_combout $end
$var wire 1 m# saidas[0][30]~feeder_combout $end
$var wire 1 n# saidas[0][30]~q $end
$var wire 1 o# dado_de_saida[31]~input_o $end
$var wire 1 p# saidas~40_combout $end
$var wire 1 q# saidas[0][31]~feeder_combout $end
$var wire 1 r# saidas[0][31]~q $end
$var wire 1 s# saidas[1][0]~feeder_combout $end
$var wire 1 t# saidas[1][0]~41_combout $end
$var wire 1 u# saidas[1][0]~q $end
$var wire 1 v# saidas[1][1]~feeder_combout $end
$var wire 1 w# saidas[1][1]~q $end
$var wire 1 x# saidas[1][2]~feeder_combout $end
$var wire 1 y# saidas[1][2]~q $end
$var wire 1 z# saidas[1][3]~feeder_combout $end
$var wire 1 {# saidas[1][3]~q $end
$var wire 1 |# saidas[1][4]~q $end
$var wire 1 }# saidas[1][5]~feeder_combout $end
$var wire 1 ~# saidas[1][5]~q $end
$var wire 1 !$ saidas[1][6]~feeder_combout $end
$var wire 1 "$ saidas[1][6]~q $end
$var wire 1 #$ saidas[1][7]~q $end
$var wire 1 $$ saidas[1][8]~feeder_combout $end
$var wire 1 %$ saidas[1][8]~q $end
$var wire 1 &$ saidas[1][9]~q $end
$var wire 1 '$ saidas[1][10]~q $end
$var wire 1 ($ saidas[1][11]~feeder_combout $end
$var wire 1 )$ saidas[1][11]~q $end
$var wire 1 *$ saidas[1][12]~feeder_combout $end
$var wire 1 +$ saidas[1][12]~q $end
$var wire 1 ,$ saidas[1][13]~feeder_combout $end
$var wire 1 -$ saidas[1][13]~q $end
$var wire 1 .$ saidas[1][14]~feeder_combout $end
$var wire 1 /$ saidas[1][14]~q $end
$var wire 1 0$ saidas[1][15]~feeder_combout $end
$var wire 1 1$ saidas[1][15]~q $end
$var wire 1 2$ saidas[1][16]~feeder_combout $end
$var wire 1 3$ saidas[1][16]~q $end
$var wire 1 4$ saidas[1][17]~feeder_combout $end
$var wire 1 5$ saidas[1][17]~q $end
$var wire 1 6$ saidas[1][18]~feeder_combout $end
$var wire 1 7$ saidas[1][18]~q $end
$var wire 1 8$ saidas[1][19]~feeder_combout $end
$var wire 1 9$ saidas[1][19]~q $end
$var wire 1 :$ saidas[1][20]~q $end
$var wire 1 ;$ saidas[1][21]~feeder_combout $end
$var wire 1 <$ saidas[1][21]~q $end
$var wire 1 =$ saidas[1][22]~q $end
$var wire 1 >$ saidas[1][23]~feeder_combout $end
$var wire 1 ?$ saidas[1][23]~q $end
$var wire 1 @$ saidas[1][24]~feeder_combout $end
$var wire 1 A$ saidas[1][24]~q $end
$var wire 1 B$ saidas[1][25]~feeder_combout $end
$var wire 1 C$ saidas[1][25]~q $end
$var wire 1 D$ saidas[1][26]~q $end
$var wire 1 E$ saidas[1][27]~feeder_combout $end
$var wire 1 F$ saidas[1][27]~q $end
$var wire 1 G$ saidas[1][28]~q $end
$var wire 1 H$ saidas[1][29]~q $end
$var wire 1 I$ saidas[1][30]~feeder_combout $end
$var wire 1 J$ saidas[1][30]~q $end
$var wire 1 K$ saidas[1][31]~feeder_combout $end
$var wire 1 L$ saidas[1][31]~q $end
$var wire 1 M$ saidas[2][31]~42_combout $end
$var wire 1 N$ saidas[2][0]~q $end
$var wire 1 O$ saidas[2][1]~q $end
$var wire 1 P$ saidas[2][2]~q $end
$var wire 1 Q$ saidas[2][3]~q $end
$var wire 1 R$ saidas[2][4]~q $end
$var wire 1 S$ saidas[2][5]~q $end
$var wire 1 T$ saidas[2][6]~q $end
$var wire 1 U$ saidas[2][7]~q $end
$var wire 1 V$ saidas[2][8]~q $end
$var wire 1 W$ saidas[2][9]~q $end
$var wire 1 X$ saidas[2][10]~q $end
$var wire 1 Y$ saidas[2][11]~q $end
$var wire 1 Z$ saidas[2][12]~q $end
$var wire 1 [$ saidas[2][13]~q $end
$var wire 1 \$ saidas[2][14]~q $end
$var wire 1 ]$ saidas[2][15]~q $end
$var wire 1 ^$ saidas[2][16]~q $end
$var wire 1 _$ saidas[2][17]~q $end
$var wire 1 `$ saidas[2][18]~q $end
$var wire 1 a$ saidas[2][19]~q $end
$var wire 1 b$ saidas[2][20]~q $end
$var wire 1 c$ saidas[2][21]~q $end
$var wire 1 d$ saidas[2][22]~q $end
$var wire 1 e$ saidas[2][23]~q $end
$var wire 1 f$ saidas[2][24]~q $end
$var wire 1 g$ saidas[2][25]~q $end
$var wire 1 h$ saidas[2][26]~q $end
$var wire 1 i$ saidas[2][27]~q $end
$var wire 1 j$ saidas[2][28]~q $end
$var wire 1 k$ saidas[2][29]~q $end
$var wire 1 l$ saidas[2][30]~q $end
$var wire 1 m$ saidas[2][31]~q $end
$upscope $end
$upscope $end
$enddefinitions $end
#0
$dumpvars
0!
0"
b0 #
b0 $
0%
0E
0D
0C
0B
0A
0@
0?
0>
0=
0<
0;
0:
09
08
07
06
05
04
03
02
01
00
0/
0.
0-
0,
0+
0*
0)
0(
0'
0&
0e
0d
0c
0b
0a
0`
0_
0^
0]
0\
0[
0Z
0Y
0X
0W
0V
0U
0T
0S
0R
0Q
0P
0O
0N
0M
0L
0K
0J
0I
0H
0G
0F
0'!
0&!
0%!
0$!
0#!
0"!
0!!
0~
0}
0|
0{
0z
0y
0x
0w
0v
0u
0t
0s
0r
0q
0p
0o
0n
0m
0l
0k
0j
0i
0h
0g
0f
x(!
0)!
1*!
x+!
1,!
1-!
1.!
0/!
00!
01!
02!
03!
04!
05!
06!
07!
08!
09!
0:!
0;!
0<!
0=!
0>!
0?!
0@!
0A!
0B!
0C!
0D!
0E!
0F!
0G!
0H!
0I!
0J!
0K!
0L!
0M!
0N!
0O!
0P!
0Q!
0R!
0S!
0T!
0U!
0V!
0W!
0X!
0Y!
0Z!
0[!
0\!
0]!
0^!
0_!
0`!
0a!
0b!
0c!
0d!
0e!
0f!
0g!
0h!
0i!
0j!
0k!
0l!
0m!
0n!
0o!
0p!
0q!
0r!
0s!
0t!
0u!
0v!
0w!
0x!
0y!
0z!
0{!
0|!
0}!
0~!
0!"
0""
0#"
0$"
0%"
0&"
0'"
0("
0)"
0*"
0+"
0,"
0-"
0."
0/"
00"
01"
02"
03"
04"
05"
06"
07"
08"
09"
0:"
0;"
1<"
0="
0>"
0?"
0@"
1A"
0B"
0C"
0D"
0E"
1F"
0G"
0H"
0I"
0J"
1K"
0L"
0M"
0N"
0O"
1P"
0Q"
0R"
0S"
0T"
1U"
1V"
0W"
0X"
0Y"
0Z"
0["
0\"
0]"
0^"
0_"
0`"
0a"
0b"
0c"
0d"
0e"
0f"
0g"
0h"
0i"
0j"
0k"
0l"
0m"
0n"
0o"
0p"
0q"
0r"
0s"
0t"
0u"
0v"
0w"
0x"
0y"
0z"
0{"
0|"
0}"
0~"
0!#
0"#
0##
0$#
0%#
0&#
0'#
0(#
0)#
0*#
0+#
0,#
0-#
0.#
0/#
00#
01#
02#
03#
04#
05#
06#
07#
08#
09#
0:#
0;#
0<#
0=#
0>#
0?#
0@#
0A#
0B#
0C#
0D#
0E#
0F#
0G#
0H#
0I#
0J#
0K#
0L#
0M#
0N#
0O#
0P#
0Q#
0R#
0S#
0T#
0U#
0V#
0W#
0X#
0Y#
0Z#
0[#
0\#
0]#
0^#
0_#
0`#
0a#
0b#
0c#
0d#
0e#
0f#
0g#
0h#
0i#
0j#
0k#
0l#
0m#
0n#
0o#
0p#
0q#
0r#
0s#
0t#
0u#
0v#
0w#
0x#
0y#
0z#
0{#
0|#
0}#
0~#
0!$
0"$
0#$
0$$
0%$
0&$
0'$
0($
0)$
0*$
0+$
0,$
0-$
0.$
0/$
00$
01$
02$
03$
04$
05$
06$
07$
08$
09$
0:$
0;$
0<$
0=$
0>$
0?$
0@$
0A$
0B$
0C$
0D$
0E$
0F$
0G$
0H$
0I$
0J$
0K$
0L$
0M$
0N$
0O$
0P$
0Q$
0R$
0S$
0T$
0U$
0V$
0W$
0X$
0Y$
0Z$
0[$
0\$
0]$
0^$
0_$
0`$
0a$
0b$
0c$
0d$
0e$
0f$
0g$
0h$
0i$
0j$
0k$
0l$
0m$
$end
#50000
1"
11"
12"
0(!
#100000
1!
b10000 #
b10100 #
b10110 #
0"
1W"
1\"
1`"
1h"
01"
02"
1(!
1X"
1]"
1a"
1i"
1Z"
1v#
1^"
1x#
1b"
#150000
1"
11"
12"
0(!
1j"
1c"
1_"
13!
11!
10!
1A
1C
1D
#200000
b110110 #
b111110 #
b1 $
0!
b101110 #
b101100 #
0"
17"
0\"
1d"
0h"
1k"
0W"
01"
02"
1(!
1t#
0Z"
0]"
1e"
0i"
1l"
0X"
0v#
0^"
1z#
1f"
1}#
1m"
0t#
#250000
1"
11"
12"
0(!
#300000
b1101100 #
b1101000 #
b1001000 #
b1000000 #
1!
b1000010 #
0"
1\"
0`"
0d"
0k"
1o"
1W"
01"
02"
1(!
1]"
0a"
0e"
0l"
1p"
1X"
1v#
1^"
0x#
0b"
0z#
0f"
0}#
0m"
1!$
1q"
1t#
#350000
1"
11"
12"
0(!
1"$
1w#
1U!
1P!
1_
1d
#400000
b11 $
b10 $
b1010010 #
b1011010 #
0!
b1011000 #
0"
0\"
1d"
1h"
07"
1Y"
0W"
01"
02"
1(!
0]"
1e"
1i"
1M$
0t#
0X"
0v#
0^"
1z#
1f"
0M$
#450000
1"
11"
12"
0(!
#500000
b1011100 #
b1111100 #
b1101100 #
1!
b1101110 #
0"
1\"
1`"
0h"
1k"
1W"
01"
02"
1(!
1]"
1a"
0i"
1l"
1X"
1v#
1^"
1x#
1b"
1}#
1m"
1M$
#550000
1"
11"
12"
0(!
1T$
1S$
1Q$
1P$
1O$
1u!
1t!
1r!
1q!
1p!
1!!
1"!
1$!
1%!
1&!
#600000
b11101110 #
b10101110 #
b11 $
b10100110 #
b10000110 #
0!
b10000100 #
0"
17"
0\"
0d"
0k"
0o"
1s"
0W"
01"
02"
1(!
0M$
0]"
0e"
0l"
0p"
1t"
0X"
0v#
0^"
0z#
0f"
0}#
0m"
0!$
0q"
#650000
1"
11"
12"
0(!
#700000
1%
b10000000 #
b10010000 #
b10011000 #
1!
b10011010 #
0"
14"
1\"
0`"
1d"
1h"
1W"
01"
02"
1(!
1M$
1t#
0t"
0a"
1Z"
1X"
0x#
0b"
#750000
1"
11"
12"
0(!
0T$
0S$
0Q$
0P$
0O$
0"$
0w#
0j"
0c"
0_"
0u!
0t!
0r!
0q!
0p!
0U!
0P!
03!
01!
00!
0!!
0"!
0$!
0%!
0&!
0_
0d
0A
0C
0D
#800000
b111 $
b101 $
b100 $
b10111010 #
b10110010 #
0!
b10110000 #
0"
0\"
0d"
1k"
07"
0Y"
1Q"
0W"
01"
02"
1(!
0U"
0X"
0V"
#850000
1"
11"
12"
0(!
#900000
b11110000 #
b11110100 #
b11100100 #
b11000100 #
1!
b11000110 #
0"
1\"
1`"
0h"
0k"
1o"
1W"
01"
02"
1(!
#950000
1"
11"
12"
0(!
